<svg width="32" height="32" viewBox="0 0 32 32" fill="none" xmlns="http://www.w3.org/2000/svg">
<path fill-rule="evenodd" clip-rule="evenodd" d="M15.3333 11.68V15.12C15.3333 15.2968 15.4035 15.4664 15.5285 15.5914C15.6535 15.7164 15.8231 15.7866 15.9999 15.7866C16.1767 15.7866 16.3463 15.7164 16.4713 15.5914C16.5963 15.4664 16.6666 15.2968 16.6666 15.12V11.68C16.6666 11.5032 16.5963 11.3336 16.4713 11.2086C16.3463 11.0835 16.1767 11.0133 15.9999 11.0133C15.8231 11.0133 15.6535 11.0835 15.5285 11.2086C15.4035 11.3336 15.3333 11.5032 15.3333 11.68Z" fill="#EAE2F9"/>
<path fill-rule="evenodd" clip-rule="evenodd" d="M5.8265 15.7866V25.7066C5.8265 25.8834 5.75626 26.053 5.63124 26.178C5.50621 26.303 5.33664 26.3732 5.15983 26.3732C4.98302 26.3732 4.81345 26.303 4.68843 26.178C4.5634 26.053 4.49316 25.8834 4.49316 25.7066V15.1199C4.49658 14.9442 4.56791 14.7766 4.6922 14.6523C4.8165 14.528 4.98409 14.4567 5.15983 14.4532H26.8398C27.0156 14.4567 27.1832 14.528 27.3075 14.6523C27.4317 14.7766 27.5031 14.9442 27.5065 15.1199V18.4132C27.5065 18.5901 27.4363 18.7596 27.3112 18.8847C27.1862 19.0097 27.0166 19.0799 26.8398 19.0799C26.663 19.0799 26.4935 19.0097 26.3684 18.8847C26.2434 18.7596 26.1732 18.5901 26.1732 18.4132V15.7466L5.8265 15.7866Z" fill="#EAE2F9"/>
<path fill-rule="evenodd" clip-rule="evenodd" d="M26.1733 21.2V25.7067C26.1733 25.8835 26.2436 26.053 26.3686 26.1781C26.4936 26.3031 26.6632 26.3733 26.84 26.3733C27.0168 26.3733 27.1864 26.3031 27.3114 26.1781C27.4364 26.053 27.5067 25.8835 27.5067 25.7067V21.2C27.5067 21.0232 27.4364 20.8536 27.3114 20.7286C27.1864 20.6036 27.0168 20.5333 26.84 20.5333C26.6632 20.5333 26.4936 20.6036 26.3686 20.7286C26.2436 20.8536 26.1733 21.0232 26.1733 21.2Z" fill="#EAE2F9"/>
<path fill-rule="evenodd" clip-rule="evenodd" d="M16.6666 20.28V25.7067C16.6666 25.8835 16.5963 26.053 16.4713 26.1781C16.3463 26.3031 16.1767 26.3733 15.9999 26.3733C15.8231 26.3733 15.6535 26.3031 15.5285 26.1781C15.4035 26.053 15.3333 25.8835 15.3333 25.7067V19.6133C15.3333 19.4365 15.4035 19.2669 15.5285 19.1419C15.6535 19.0169 15.8231 18.9467 15.9999 18.9467H24.7999C24.9767 18.9467 25.1463 19.0169 25.2713 19.1419C25.3963 19.2669 25.4666 19.4365 25.4666 19.6133C25.4666 19.7901 25.3963 19.9597 25.2713 20.0847C25.1463 20.2098 24.9767 20.28 24.7999 20.28H16.6666Z" fill="#EAE2F9"/>
<path d="M17.8666 4.53329C17.8666 4.90248 17.7572 5.26339 17.552 5.57036C17.3469 5.87733 17.0554 6.11658 16.7143 6.25787C16.3732 6.39915 15.9979 6.43612 15.6358 6.36409C15.2737 6.29207 14.9411 6.11428 14.68 5.85323C14.419 5.59217 14.2412 5.25956 14.1692 4.89746C14.0971 4.53536 14.1341 4.16004 14.2754 3.81895C14.4167 3.47786 14.6559 3.18633 14.9629 2.98122C15.2699 2.7761 15.6308 2.66663 16 2.66663C16.495 2.66663 16.9698 2.86329 17.3199 3.21336C17.67 3.56343 17.8666 4.03822 17.8666 4.53329Z" fill="#F7BF75"/>
<path d="M15.9199 8.33325C15.0781 8.35177 14.2682 8.65837 13.6252 9.20189C12.9821 9.74542 12.545 10.493 12.3865 11.3199C12.3635 11.4714 12.3869 11.6264 12.4535 11.7644C12.5201 11.9024 12.6269 12.017 12.7599 12.0933C13.7508 12.6443 14.866 12.9335 15.9999 12.9335C17.1338 12.9335 18.2489 12.6443 19.2399 12.0933C19.3821 12.0037 19.493 11.8723 19.5575 11.7171C19.6219 11.5619 19.6367 11.3905 19.5999 11.2266C19.4158 10.4081 18.9595 9.67625 18.3056 9.15069C17.6517 8.62513 16.8388 8.33695 15.9999 8.33325H15.9199Z" fill="#F7BF75"/>
<path d="M7.63993 26.8665C7.63993 27.357 7.49448 27.8365 7.22198 28.2443C6.94947 28.6522 6.56215 28.97 6.10899 29.1577C5.65583 29.3454 5.15718 29.3945 4.67611 29.2989C4.19504 29.2032 3.75314 28.967 3.40631 28.6201C3.05947 28.2733 2.82328 27.8314 2.72759 27.3503C2.63189 26.8693 2.68101 26.3706 2.86871 25.9175C3.05642 25.4643 3.37428 25.077 3.78212 24.8045C4.18995 24.532 4.66944 24.3865 5.15993 24.3865C5.48611 24.3847 5.80939 24.4477 6.11108 24.5717C6.41276 24.6957 6.68686 24.8783 6.9175 25.1089C7.14814 25.3396 7.33075 25.6137 7.45475 25.9154C7.57876 26.2171 7.6417 26.5403 7.63993 26.8665Z" fill="#96CCEE"/>
<path d="M29.3333 19.6133C29.3359 20.1049 29.1923 20.5862 28.9209 20.9961C28.6494 21.406 28.2622 21.7259 27.8085 21.9153C27.3548 22.1046 26.855 22.1549 26.3727 22.0596C25.8904 21.9643 25.4473 21.7279 25.0997 21.3802C24.752 21.0326 24.5156 20.5895 24.4203 20.1072C24.325 19.6249 24.3753 19.1251 24.5646 18.6714C24.754 18.2177 25.0739 17.8305 25.4838 17.559C25.8937 17.2875 26.375 17.144 26.8666 17.1466C27.5208 17.1466 28.1482 17.4065 28.6108 17.8691C29.0734 18.3317 29.3333 18.9591 29.3333 19.6133Z" fill="#F94060"/>
<path d="M29.3333 26.8665C29.3333 27.3576 29.1875 27.8376 28.9144 28.2457C28.6413 28.6538 28.2532 28.9717 27.7992 29.159C27.3453 29.3463 26.846 29.3946 26.3645 29.2978C25.8831 29.2011 25.4412 28.9635 25.0949 28.6154C24.7487 28.2672 24.5135 27.8241 24.4193 27.3421C24.3251 26.8602 24.3762 26.3611 24.5659 25.9082C24.7557 25.4553 25.0756 25.0689 25.4852 24.798C25.8948 24.5271 26.3756 24.3839 26.8666 24.3865C27.1917 24.3865 27.5135 24.4507 27.8137 24.5755C28.1138 24.7003 28.3863 24.8832 28.6156 25.1137C28.8448 25.3442 29.0262 25.6177 29.1494 25.9185C29.2725 26.2193 29.3351 26.5415 29.3333 26.8665Z" fill="#96CCEE"/>
<path d="M18.4665 26.8667C18.4639 27.354 18.317 27.8296 18.0443 28.2335C17.7717 28.6374 17.3855 28.9514 16.9346 29.1361C16.4836 29.3207 15.9881 29.3677 15.5105 29.271C15.0329 29.1743 14.5946 28.9384 14.251 28.5929C13.9073 28.2474 13.6737 27.8078 13.5796 27.3297C13.4855 26.8516 13.5352 26.3563 13.7222 25.9064C13.9093 25.4564 14.2255 25.072 14.6308 24.8015C15.0362 24.5311 15.5125 24.3867 15.9998 24.3867C16.3249 24.3867 16.6467 24.451 16.9469 24.5757C17.247 24.7005 17.5195 24.8834 17.7488 25.1139C17.978 25.3444 18.1594 25.6179 18.2826 25.9187C18.4058 26.2195 18.4683 26.5417 18.4665 26.8667Z" fill="#96CCEE"/>
</svg>
