<svg width="32" height="32" viewBox="0 0 32 32" fill="none" xmlns="http://www.w3.org/2000/svg">
<path d="M26.3756 17.6121C25.3696 17.6165 24.4984 17.8591 23.7709 18.2184C23.5059 17.6838 23.2319 17.2168 23.1869 16.8666C23.1332 16.4578 23.0747 16.2154 23.1376 15.7304C23.2006 15.2452 23.4834 14.5581 23.4789 14.5088C23.4745 14.4594 23.4161 14.2124 22.8368 14.2079C22.2574 14.2034 21.759 14.3201 21.7006 14.4728C21.6421 14.6255 21.5299 14.9714 21.4626 15.3306C21.3593 15.8561 20.3038 17.7333 19.7065 18.7123C19.5089 18.3307 19.3428 17.9937 19.3068 17.7243C19.2529 17.3156 19.1946 17.0731 19.2574 16.5881C19.3203 16.103 19.6032 15.4159 19.5987 15.3666C19.5942 15.3172 19.5358 15.0701 18.9566 15.0656C18.3772 15.0612 17.8788 15.1779 17.8203 15.3306C17.7619 15.4832 17.6991 15.8426 17.5823 16.1885C17.4656 16.5341 16.0599 19.6598 15.6916 20.4727C15.5029 20.8858 15.3414 21.2182 15.2246 21.4428C15.2067 21.4787 15.1932 21.5012 15.1842 21.5192C15.1976 21.4967 15.2067 21.4742 15.2067 21.4833C15.1079 21.6763 15.0494 21.7841 15.0494 21.7841V21.7886C14.9731 21.9322 14.8878 22.0624 14.8474 22.0624C14.8204 22.0624 14.7621 21.6853 14.8609 21.1688C15.0719 20.082 15.5704 18.3936 15.5659 18.3351C15.5614 18.3036 15.6601 18.0117 15.238 17.8545C14.8294 17.7063 14.6811 17.9534 14.6453 17.9534C14.6094 17.9534 14.5824 18.0432 14.5824 18.0432C14.5824 18.0432 15.036 16.1391 13.7111 16.1391C12.8848 16.1391 11.7352 17.0463 11.1694 17.8681C10.8146 18.0612 10.0466 18.4789 9.23826 18.9234C8.92838 19.0941 8.60951 19.2692 8.30863 19.4354C8.2862 19.4129 8.2682 19.3904 8.24576 19.368C6.63801 17.6526 3.66951 16.44 3.79532 14.1361C3.84019 13.2962 4.13213 11.0913 9.50326 8.41468C13.9044 6.22312 17.4252 6.82493 18.0316 8.16318C18.9027 10.0719 16.1498 13.6242 11.5781 14.1361C9.83557 14.3292 8.91951 13.6556 8.69044 13.4041C8.45238 13.1392 8.41644 13.1256 8.32663 13.1751C8.17838 13.2559 8.27276 13.4894 8.32663 13.6286C8.46138 13.9834 9.0227 14.6121 9.97932 14.9265C10.819 15.2004 12.8624 15.3532 15.3324 14.3966C18.1078 13.3277 20.2679 10.3502 19.6347 7.85781C18.9881 5.325 14.7891 4.49412 10.8146 5.90425C8.44794 6.74406 5.88813 8.06443 4.04682 9.78437C1.85976 11.8323 1.50951 13.6151 1.65313 14.3607C2.16513 17.0057 5.8117 18.7303 7.27126 20.0057C7.19938 20.0461 7.13201 20.0821 7.0692 20.118C6.3372 20.4817 3.55732 21.9367 2.86119 23.4728C2.07538 25.2152 2.99138 26.4636 3.5932 26.6344C5.47038 27.1552 7.39251 26.2167 8.42545 24.6762C9.45826 23.1359 9.33257 21.124 8.85657 20.2078C8.85201 20.1944 8.84307 20.1855 8.83863 20.1719C9.02719 20.0597 9.22026 19.9474 9.41345 19.8351C9.78613 19.6151 10.1499 19.4129 10.4688 19.2379C10.2891 19.7229 10.1589 20.3065 10.0915 21.1509C10.0107 22.1389 10.4194 23.4188 10.9493 23.9218C11.1828 24.1419 11.4657 24.1464 11.6409 24.1464C12.2606 24.1464 12.539 23.6344 12.8489 23.0236C13.2306 22.278 13.5674 21.4112 13.5674 21.4112C13.5674 21.4112 13.1453 23.7557 14.2994 23.7557C14.7216 23.7557 15.1438 23.2122 15.3323 22.9338V22.9382C15.3323 22.9382 15.3414 22.9204 15.3638 22.8845C15.4087 22.8171 15.4311 22.7766 15.4311 22.7766V22.7631C15.6018 22.4712 15.9746 21.802 16.5358 20.6973C17.2634 19.2691 17.9594 17.4862 17.9594 17.4862C17.9594 17.4862 18.0223 17.9219 18.238 18.6449C18.3637 19.0716 18.6286 19.5386 18.8397 19.9922C18.6691 20.2257 18.5658 20.3605 18.5658 20.3605C18.5658 20.3605 18.5658 20.3649 18.5701 20.3694C18.4354 20.5492 18.2828 20.7423 18.1256 20.9309C17.5508 21.6135 16.8681 22.395 16.7784 22.6195C16.6705 22.8845 16.6975 23.0819 16.9041 23.2347C17.0568 23.3516 17.3263 23.3694 17.6091 23.3471C18.1256 23.311 18.4894 23.1854 18.6645 23.1044C18.9429 23.0057 19.2663 22.8484 19.5717 22.6284C20.1331 22.2154 20.4744 21.6226 20.4429 20.8411C20.4249 20.41 20.2856 19.9788 20.115 19.5747C20.1644 19.5028 20.2184 19.4264 20.2678 19.3502C21.1571 18.0521 21.8441 16.6287 21.8441 16.6287C21.8441 16.6287 21.907 17.0642 22.1225 17.7872C22.2303 18.1511 22.4414 18.5507 22.6344 18.9414C21.7991 19.6196 21.2828 20.4056 21.1031 20.9219C20.7707 21.8785 21.0312 22.3095 21.5207 22.4085C21.7408 22.4534 22.0551 22.35 22.2887 22.2512C22.5806 22.1524 22.9309 21.9952 23.2587 21.7527C23.8201 21.3396 24.3635 20.7602 24.3276 19.9743C24.3141 19.6195 24.2153 19.2647 24.0851 18.9234C24.7901 18.6271 25.7064 18.4653 26.8739 18.6001C29.3754 18.892 29.8648 20.4548 29.7705 21.1059C29.6763 21.7617 29.1509 22.121 28.9757 22.2287C28.8004 22.3366 28.7466 22.377 28.7602 22.4578C28.7826 22.5746 28.8634 22.5701 29.0116 22.5431C29.2183 22.5072 30.3229 22.0131 30.3723 20.8051C30.4443 19.2781 28.9758 17.5986 26.3756 17.6121ZM7.09613 24.1104C6.26988 25.0131 5.1112 25.3544 4.61276 25.0669C4.07832 24.7572 4.28938 23.4278 5.30882 22.4667C5.92857 21.8829 6.72795 21.3441 7.25788 21.0117C7.37913 20.9399 7.55432 20.8321 7.76988 20.7019C7.80582 20.6796 7.82376 20.6705 7.82376 20.6705C7.86413 20.6434 7.90907 20.6211 7.95401 20.5941C8.32663 21.9593 7.96738 23.1628 7.09613 24.1104ZM13.1319 20.0057C12.8445 20.7107 12.2382 22.5071 11.8701 22.4128C11.5557 22.3319 11.3625 20.9622 11.8072 19.6151C12.0317 18.9369 12.5077 18.1286 12.7907 17.8142C13.2442 17.3067 13.7427 17.145 13.8595 17.3471C14.0166 17.6121 13.3115 19.5656 13.1319 20.0057ZM18.1168 22.386C17.9956 22.4488 17.8833 22.4892 17.8294 22.4577C17.789 22.4353 17.8788 22.3499 17.8788 22.3499C17.8788 22.3499 18.5029 21.6808 18.75 21.3753C18.8937 21.1957 19.0598 20.9846 19.2395 20.7512C19.2395 20.7735 19.2439 20.7961 19.2439 20.8229C19.2396 21.6269 18.4671 22.1704 18.1168 22.386ZM21.9611 21.5102C21.8713 21.4473 21.8846 21.2362 22.1856 20.5805C22.3024 20.3245 22.5719 19.8934 23.0388 19.4802C23.0928 19.6509 23.1241 19.8125 23.1241 19.9652C23.1196 20.9757 22.3966 21.3529 21.9611 21.5102Z" fill="#CF649A"/>
</svg>
