<svg width="24" height="24" viewBox="0 0 24 24" fill="none" xmlns="http://www.w3.org/2000/svg">
<g clip-path="url(#clip0_9_91)">
<path d="M3.6392 7.45349L10.7983 0.614853C11.1938 0.205762 11.7324 0.00121689 12.3256 0.00121689C12.9188 0.00121689 13.4506 0.205762 13.8528 0.614853L21.0392 7.45349C21.8915 8.26485 21.8915 9.58758 21.0392 10.3989C20.1869 11.2103 18.8097 11.2103 17.9574 10.3989L14.521 7.1194V21.9149C14.521 23.0671 13.546 24.0012 12.3392 24.0012C11.1324 24.0012 10.1574 23.0671 10.1574 21.9149V7.1194L6.72102 10.4058C5.86875 11.2171 4.49148 11.2171 3.6392 10.4058C2.78693 9.58758 2.78693 8.27167 3.6392 7.45349Z" fill="#5D5F5F"/>
</g>
<defs>
<clipPath id="clip0_9_91">
<rect width="24" height="24" fill="white" transform="translate(0 0.00121689)"/>
</clipPath>
</defs>
</svg>
