<svg width="24" height="24" viewBox="0 0 24 24" fill="none" xmlns="http://www.w3.org/2000/svg">
<path d="M23.0769 5.76923H0.923077C0.678262 5.76923 0.443473 5.67198 0.270363 5.49887C0.0972525 5.32576 0 5.09097 0 4.84615C0 4.60134 0.0972525 4.36655 0.270363 4.19344C0.443473 4.02033 0.678262 3.92308 0.923077 3.92308H23.0769C23.3217 3.92308 23.5565 4.02033 23.7296 4.19344C23.9027 4.36655 24 4.60134 24 4.84615C24 5.09097 23.9027 5.32576 23.7296 5.49887C23.5565 5.67198 23.3217 5.76923 23.0769 5.76923Z" fill="#5D5F5F"/>
<path d="M23.0769 12.9231H0.923077C0.678262 12.9231 0.443473 12.8258 0.270363 12.6527C0.0972525 12.4796 0 12.2448 0 12C0 11.7552 0.0972525 11.5204 0.270363 11.3473C0.443473 11.1742 0.678262 11.0769 0.923077 11.0769H23.0769C23.3217 11.0769 23.5565 11.1742 23.7296 11.3473C23.9027 11.5204 24 11.7552 24 12C24 12.2448 23.9027 12.4796 23.7296 12.6527C23.5565 12.8258 23.3217 12.9231 23.0769 12.9231Z" fill="#5D5F5F"/>
<path d="M23.0769 20.0769H0.923077C0.678262 20.0769 0.443473 19.9797 0.270363 19.8066C0.0972525 19.6335 0 19.3987 0 19.1539C0 18.909 0.0972525 18.6742 0.270363 18.5011C0.443473 18.328 0.678262 18.2308 0.923077 18.2308H23.0769C23.3217 18.2308 23.5565 18.328 23.7296 18.5011C23.9027 18.6742 24 18.909 24 19.1539C24 19.3987 23.9027 19.6335 23.7296 19.8066C23.5565 19.9797 23.3217 20.0769 23.0769 20.0769Z" fill="#5D5F5F"/>
</svg>
